2018-05-24 12:31:12.8646|ERROR|USB.MPhilFutureStudies.ApplicationForm.Controllers.PageController|SIS error.  Code: 40; Error Message: Usnommer het teruggekom as 0 - Initials cannot contain a '3'
2018-05-24 12:37:32.6024|INFO|StellenboschUniversity.Usb.Integration.Crm.Controllers.ApplicationFormApiController|Successful submit
2018-05-24 12:38:12.5193|INFO|StellenboschUniversity.Usb.Integration.Crm.Controllers.ApplicationFormApiController|Applicant was assigned US number: 22697527
2018-05-24 12:38:14.3454|INFO|StellenboschUniversity.Usb.Integration.Crm.Controllers.ApplicationFormApiController|Successful submit
