2018-05-25 10:36:37.3193|INFO|StellenboschUniversity.Usb.Integration.Crm.Controllers.ApplicationFormApiController|Successful submit
2018-05-25 10:37:04.1327|INFO|StellenboschUniversity.Usb.Integration.Crm.Controllers.ApplicationFormApiController|Applicant was assigned US number: 22697578
2018-05-25 10:37:05.1411|INFO|StellenboschUniversity.Usb.Integration.Crm.Controllers.ApplicationFormApiController|Successful submit
