2018-01-15 09:41:08.4911|INFO|StellenboschUniversity.Usb.Integration.Crm.Controllers.ApplicationFormApiController|Successful submit
2018-01-15 09:46:45.3771|INFO|StellenboschUniversity.Usb.Integration.Crm.Controllers.ApplicationFormApiController|Successful submit
2018-01-15 09:50:37.8266|INFO|StellenboschUniversity.Usb.Integration.Crm.Controllers.ApplicationFormApiController|Successful submit
2018-01-15 09:57:55.5985|INFO|StellenboschUniversity.Usb.Integration.Crm.Controllers.ApplicationFormApiController|Successful submit
2018-01-15 09:58:53.2242|INFO|StellenboschUniversity.Usb.Integration.Crm.Controllers.ApplicationFormApiController|Applicant was assigned US number: 22498354
2018-01-15 09:59:02.0486|INFO|StellenboschUniversity.Usb.Integration.Crm.Controllers.ApplicationFormApiController|Successful submit
2018-01-15 10:02:05.3774|INFO|StellenboschUniversity.Usb.Integration.Crm.Controllers.ApplicationFormApiController|Successful submit
2018-01-15 10:02:46.0275|INFO|StellenboschUniversity.Usb.Integration.Crm.Controllers.ApplicationFormApiController|Successful submit
2018-01-15 10:03:07.5075|INFO|StellenboschUniversity.Usb.Integration.Crm.Controllers.ApplicationFormApiController|Successful submit
