2017-11-02 06:02:13.0822|INFO|StellenboschUniversity.Usb.Integration.Crm.Controllers.ApplicationFormApiController|Successful submit
2017-11-02 06:02:59.0412|INFO|StellenboschUniversity.Usb.Integration.Crm.Controllers.ApplicationFormApiController|Applicant was assigned US number: 22455817
2017-11-02 06:03:15.1810|INFO|StellenboschUniversity.Usb.Integration.Crm.Controllers.ApplicationFormApiController|Successful submit
